<?xml version="1.0" encoding="utf-8"?>
<!-- Generator: Adobe Illustrator 25.4.1, SVG Export Plug-In . SVG Version: 6.00 Build 0)  -->
<svg version="1.1" xmlns="http://www.w3.org/2000/svg" xmlns:xlink="http://www.w3.org/1999/xlink" x="0px" y="0px"
	 viewBox="0 0 300 300" style="enable-background:new 0 0 300 300;" xml:space="preserve">
<style type="text/css">
	.st0{fill:#F6B729;}
	.st1{fill:#FFFFFF;}
	.st2{opacity:0.13;fill:#010101;}
</style>
<g id="Capa_1">
</g>
<g id="Layer_1">
	<circle class="st0" cx="149.68" cy="150.47" r="150"/>
	<g>
		<path class="st1" d="M99.95,84.5v140h-26V106.3h-29.6V84.5H99.95z"/>
		<path class="st1" d="M156.15,218c-8.8-5.67-15.73-13.93-20.8-24.8c-5.07-10.87-7.6-23.77-7.6-38.7c0-14.93,2.53-27.83,7.6-38.7
			c5.07-10.87,12-19.13,20.8-24.8c8.8-5.67,18.8-8.5,30-8.5s21.23,2.83,30.1,8.5c8.87,5.67,15.83,13.93,20.9,24.8
			c5.07,10.87,7.6,23.77,7.6,38.7c0,14.93-2.53,27.83-7.6,38.7c-5.07,10.87-12.03,19.13-20.9,24.8c-8.87,5.67-18.9,8.5-30.1,8.5
			S164.95,223.67,156.15,218z M209.85,191.5c5.8-8.27,8.7-20.6,8.7-37c0-16.4-2.9-28.73-8.7-37c-5.8-8.27-13.7-12.4-23.7-12.4
			c-9.87,0-17.7,4.13-23.5,12.4c-5.8,8.27-8.7,20.6-8.7,37c0,16.4,2.9,28.73,8.7,37c5.8,8.27,13.63,12.4,23.5,12.4
			C196.15,203.9,204.05,199.77,209.85,191.5z"/>
	</g>
	<path class="st2" d="M238.63,29.2C23.92,19.99,16.87,217.47,16.82,218.9C6.28,198.38,0.34,175.12,0.34,150.48
		c0-82.85,67.16-150,150-150C183.34,0.48,213.86,11.14,238.63,29.2z"/>
</g>
</svg>
