<?xml version="1.0" encoding="utf-8"?>
<!-- Generator: Adobe Illustrator 25.4.1, SVG Export Plug-In . SVG Version: 6.00 Build 0)  -->
<svg version="1.1" xmlns="http://www.w3.org/2000/svg" xmlns:xlink="http://www.w3.org/1999/xlink" x="0px" y="0px"
	 viewBox="0 0 300 300" style="enable-background:new 0 0 300 300;" xml:space="preserve">
<style type="text/css">
	.st0{fill:#03AA9F;}
	.st1{opacity:0.13;fill:#010101;}
	.st2{fill:#FFFFFF;}
</style>
<g id="Capa_1">
</g>
<g id="Layer_1">
	<circle class="st0" cx="149.68" cy="150.53" r="150"/>
	<path class="st1" d="M238.14,29.14C23.43,19.93,16.37,217.41,16.32,218.84C5.78,198.32-0.16,175.06-0.16,150.41
		c0-82.85,67.16-150,150-150C182.85,0.42,213.37,11.08,238.14,29.14z"/>
	<g>
		<circle class="st2" cx="106.8" cy="77.91" r="15.52"/>
		<path class="st2" d="M118.57,163.92H86.8c-1.14,0-2.08-0.93-2.08-2.08v-64.1c0-1.14,0.93-2.08,2.08-2.08h31.77
			c1.14,0,2.08,0.93,2.08,2.08v64.1C120.64,162.99,119.71,163.92,118.57,163.92z"/>
		<path class="st2" d="M92.83,237.61L92.83,237.61c-4.51,0-8.2-3.69-8.2-8.2v-66.47c0-4.51,3.69-8.2,8.2-8.2h0
			c4.51,0,8.2,3.69,8.2,8.2v66.47C101.02,233.93,97.33,237.61,92.83,237.61z"/>
		<path class="st2" d="M112.45,237.28L112.45,237.28c-4.51,0-8.2-3.69-8.2-8.2v-66.47c0-4.51,3.69-8.2,8.2-8.2l0,0
			c4.51,0,8.2,3.69,8.2,8.2v66.47C120.64,233.59,116.95,237.28,112.45,237.28z"/>
		<path class="st2" d="M141.69,130.53l-0.11,0.09c-2.72,2.23-6.77,1.82-9-0.9l-19.26-23.53c-2.23-2.72-1.82-6.77,0.9-9l0.11-0.09
			c2.72-2.23,6.77-1.82,9,0.9l19.26,23.53C144.81,124.25,144.41,128.3,141.69,130.53z"/>
		<path class="st2" d="M91.03,97.42l0.63,0.64c1.89,1.92,1.86,5.03-0.06,6.92l-24.57,24.17c-1.92,1.89-5.03,1.86-6.92-0.06
			l-0.63-0.64c-1.89-1.92-1.86-5.03,0.06-6.92l24.57-24.17C86.03,95.48,89.14,95.5,91.03,97.42z"/>
		<path class="st2" d="M91.55,152.3l-0.52,0.52c-1.87,1.89-4.94,1.9-6.82,0.03l-24.59-24.34c-1.89-1.87-1.9-4.94-0.03-6.82
			l0.52-0.52c1.87-1.89,4.94-1.9,6.82-0.03l24.59,24.34C93.4,147.35,93.42,150.42,91.55,152.3z"/>
		<path class="st2" d="M163.77,97L163.77,97c2.46,2.2,2.67,6.02,0.47,8.47l-21.88,24.42c-2.2,2.46-6.02,2.67-8.47,0.47l0,0
			c-2.46-2.2-2.67-6.02-0.47-8.47l21.88-24.42C157.5,95,161.31,94.79,163.77,97z"/>
		<circle class="st2" cx="193.9" cy="77.91" r="15.52"/>
		<path class="st2" d="M211.45,163.92h-31.77c-1.14,0-2.08-0.93-2.08-2.08v-64.1c0-1.14,0.93-2.08,2.08-2.08h31.77
			c1.14,0,2.08,0.93,2.08,2.08v64.1C213.52,162.99,212.59,163.92,211.45,163.92z"/>
		<path class="st2" d="M185.71,237.61L185.71,237.61c-4.51,0-8.2-3.69-8.2-8.2v-66.47c0-4.51,3.69-8.2,8.2-8.2h0
			c4.51,0,8.2,3.69,8.2,8.2v66.47C193.9,233.93,190.22,237.61,185.71,237.61z"/>
		<path class="st2" d="M205.33,237.28L205.33,237.28c-4.51,0-8.2-3.69-8.2-8.2v-66.47c0-4.51,3.69-8.2,8.2-8.2l0,0
			c4.51,0,8.2,3.69,8.2,8.2v66.47C213.52,233.59,209.84,237.28,205.33,237.28z"/>
		<path class="st2" d="M240.39,119.74l0.09,0.11c2.23,2.72,1.82,6.77-0.9,9l-23.53,19.26c-2.72,2.23-6.77,1.82-9-0.9l-0.09-0.11
			c-2.23-2.72-1.82-6.77,0.9-9l23.53-19.26C234.11,116.62,238.16,117.02,240.39,119.74z"/>
		<path class="st2" d="M183.91,97.42l0.63,0.64c1.89,1.92,1.86,5.03-0.06,6.92l-24.57,24.17c-1.92,1.89-5.03,1.86-6.92-0.06
			l-0.63-0.64c-1.89-1.92-1.86-5.03,0.06-6.92L177,97.36C178.91,95.48,182.03,95.5,183.91,97.42z"/>
		<path class="st2" d="M184.43,152.3l-0.52,0.52c-1.87,1.89-4.94,1.9-6.82,0.03l-24.59-24.34c-1.89-1.87-1.9-4.94-0.03-6.82
			l0.52-0.52c1.87-1.89,4.94-1.9,6.82-0.03l24.59,24.34C186.29,147.35,186.3,150.42,184.43,152.3z"/>
		<path class="st2" d="M206.85,97.66L206.85,97.66c2.2-2.46,6.02-2.67,8.47-0.47l24.42,21.88c2.46,2.2,2.67,6.02,0.47,8.47l0,0
			c-2.2,2.46-6.02,2.67-8.47,0.47l-24.42-21.88C204.86,103.93,204.65,100.12,206.85,97.66z"/>
	</g>
</g>
</svg>
