<?xml version="1.0" encoding="utf-8"?>
<!-- Generator: Adobe Illustrator 25.4.1, SVG Export Plug-In . SVG Version: 6.00 Build 0)  -->
<svg version="1.1" xmlns="http://www.w3.org/2000/svg" xmlns:xlink="http://www.w3.org/1999/xlink" x="0px" y="0px"
	 viewBox="0 0 300 300" style="enable-background:new 0 0 300 300;" xml:space="preserve">
<style type="text/css">
	.st0{fill:#03AA9F;}
	.st1{opacity:0.13;fill:#010101;}
	.st2{fill:#FFFFFF;}
</style>
<g id="Layer_1">
	<g>
		<circle class="st0" cx="149.81" cy="150.24" r="150"/>
		<path class="st1" d="M238.77,28.96C24.06,19.75,17.01,217.23,16.96,218.67C6.42,198.15,0.47,174.89,0.47,150.24
			c0-82.85,67.16-150,150-150C183.48,0.24,214,10.9,238.77,28.96z"/>
	</g>
	<path class="st2" d="M234.98,150c0,46.93-38.05,84.98-84.98,84.98c-46.93,0-84.98-38.05-84.98-84.98
		c0-46.93,38.05-84.98,84.98-84.98C196.93,65.02,234.98,103.07,234.98,150z"/>
	<path class="st0" d="M150,69.44c-44.49,0-80.56,36.07-80.56,80.56c0,44.49,36.07,80.56,80.56,80.56
		c44.49,0,80.56-36.07,80.56-80.56C230.56,105.51,194.49,69.44,150,69.44z M150,227.64c-42.88,0-77.64-34.76-77.64-77.64
		c0-42.88,34.76-77.64,77.64-77.64c42.88,0,77.64,34.76,77.64,77.64C227.64,192.88,192.88,227.64,150,227.64z"/>
	<ellipse transform="matrix(0.0859 -0.9963 0.9963 0.0859 -12.3253 286.5664)" class="st0" cx="150" cy="150" rx="58" ry="58"/>
	<path class="st2" d="M204.55,150c0,30.13-24.42,54.55-54.55,54.55c-30.13,0-54.55-24.42-54.55-54.55
		c0-30.13,24.42-54.55,54.55-54.55C180.13,95.45,204.55,119.87,204.55,150z"/>
	<path class="st0" d="M145.38,180.25c-6.75-0.31-13.24-1.82-19.5-4.53v-15.34c3.57,1.82,7.45,3.33,11.64,4.55
		c4.19,1.22,7.87,1.83,11.04,1.83c2.62,0,4.53-0.32,5.75-0.95c1.22-0.63,1.83-1.69,1.83-3.16c0-1.02-0.44-1.88-1.32-2.59
		c-0.88-0.71-2.34-1.51-4.39-2.4c-2.05-0.89-4.81-1.97-8.29-3.23c-3.91-1.45-7.07-3.07-9.47-4.87c-2.4-1.8-4.15-3.82-5.24-6.05
		c-1.09-2.23-1.64-5.01-1.64-8.34c0-5.08,1.63-9.06,4.9-11.92c3.26-2.86,8.16-4.64,14.69-5.31v-10.25h9.56v10.16
		c6.13,0.34,12.3,1.85,18.53,4.53l-5.5,13.17c-6.44-2.89-12.24-4.34-17.42-4.34c-2.46,0-4.2,0.3-5.2,0.9c-1,0.6-1.5,1.49-1.5,2.66
		c0,1.02,0.36,1.86,1.09,2.52c0.72,0.66,1.98,1.4,3.77,2.22c1.79,0.82,4.27,1.76,7.44,2.84c6.44,2.28,11.06,4.87,13.86,7.78
		c2.8,2.91,4.2,6.66,4.2,11.25c0,5.17-1.64,9.38-4.92,12.61c-3.28,3.23-8.06,5.24-14.35,6.01v12.36h-9.56V180.25z"/>
</g>
<g id="Capa_1">
</g>
</svg>
