<?xml version="1.0" encoding="utf-8"?>
<!-- Generator: Adobe Illustrator 25.4.1, SVG Export Plug-In . SVG Version: 6.00 Build 0)  -->
<svg version="1.1" xmlns="http://www.w3.org/2000/svg" xmlns:xlink="http://www.w3.org/1999/xlink" x="0px" y="0px"
	 viewBox="0 0 300 300" style="enable-background:new 0 0 300 300;" xml:space="preserve">
<style type="text/css">
	.st0{fill:#F6B729;}
	.st1{opacity:0.13;fill:#010101;}
	.st2{fill:#FFFFFF;}
</style>
<g id="Capa_1">
</g>
<g id="Layer_1">
	<g>
		<circle class="st0" cx="149.68" cy="150.47" r="150"/>
		<path class="st1" d="M238.63,29.2C23.92,19.99,16.87,217.47,16.82,218.9C6.28,198.38,0.34,175.12,0.34,150.48
			c0-82.85,67.16-150,150-150C183.34,0.48,213.86,11.14,238.63,29.2z"/>
	</g>
	<g>
		<path class="st2" d="M201.75,84.5v17.4l-54.4,122.6h-27.8l52.6-118h-55v23.8h-24.2V84.5H201.75z"/>
	</g>
</g>
</svg>
