<?xml version="1.0" encoding="utf-8"?>
<!-- Generator: Adobe Illustrator 25.4.1, SVG Export Plug-In . SVG Version: 6.00 Build 0)  -->
<svg version="1.1" xmlns="http://www.w3.org/2000/svg" xmlns:xlink="http://www.w3.org/1999/xlink" x="0px" y="0px"
	 viewBox="0 0 300 300" style="enable-background:new 0 0 300 300;" xml:space="preserve">
<style type="text/css">
	.st0{fill:#03AA9F;}
	.st1{opacity:0.13;fill:#010101;}
	.st2{fill:#FFFFFF;}
</style>
<g id="Capa_1">
</g>
<g id="Modo_de_aislamiento">
	<g>
		<circle class="st0" cx="150.14" cy="150" r="149.86"/>
		<path class="st1" d="M238.08,28.94C23.57,19.74,16.52,217.04,16.47,218.47C5.94,197.97,0,174.73,0,150.1
			C0,67.33,67.1,0.24,149.86,0.24C182.84,0.24,213.33,10.9,238.08,28.94z"/>
	</g>
	<g>
		<g>
			<path class="st2" d="M172.27,203.84l75.27-43.44c9.89-5.71,9.89-15.05,0-20.76l-75.26-43.47c-9.89-5.71-17.98-1.04-17.98,10.38
				l0,13.32l-79.11-0.01c-16.64,0-30.14,13.49-30.14,30.13c0,16.64,13.49,30.14,30.13,30.14l79.11,0.01l0,13.32
				C154.28,204.87,162.38,209.54,172.27,203.84z"/>
		</g>
	</g>
</g>
</svg>
