<?xml version="1.0" encoding="utf-8"?>
<!-- Generator: Adobe Illustrator 25.4.1, SVG Export Plug-In . SVG Version: 6.00 Build 0)  -->
<svg version="1.1" xmlns="http://www.w3.org/2000/svg" xmlns:xlink="http://www.w3.org/1999/xlink" x="0px" y="0px"
	 viewBox="0 0 300 300" style="enable-background:new 0 0 300 300;" xml:space="preserve">
<style type="text/css">
	.st0{fill:#F6B729;}
	.st1{fill:#FFFFFF;}
	.st2{opacity:0.13;fill:#010101;}
</style>
<g id="Capa_1">
</g>
<g id="Layer_1">
	<circle class="st0" cx="149.68" cy="150.47" r="150"/>
	<g>
		<path class="st1" d="M102.05,84.5v140h-26V106.3h-29.6V84.5H102.05z"/>
		<path class="st1" d="M237.55,164.4c3.93,5.67,5.9,12.3,5.9,19.9c0,8.53-2.37,16-7.1,22.4c-4.73,6.4-11.43,11.3-20.1,14.7
			c-8.67,3.4-18.73,5.1-30.2,5.1c-11.47,0-21.5-1.7-30.1-5.1c-8.6-3.4-15.23-8.3-19.9-14.7c-4.67-6.4-7-13.87-7-22.4
			c0-7.6,1.93-14.23,5.8-19.9c3.87-5.67,9.4-10.17,16.6-13.5c-5.6-3.07-9.9-7.1-12.9-12.1s-4.5-10.77-4.5-17.3
			c0-7.87,2.17-14.73,6.5-20.6c4.33-5.87,10.43-10.4,18.3-13.6c7.87-3.2,16.93-4.8,27.2-4.8c10.4,0,19.53,1.6,27.4,4.8
			c7.87,3.2,14,7.73,18.4,13.6c4.4,5.87,6.6,12.73,6.6,20.6c0,6.53-1.54,12.27-4.6,17.2c-3.07,4.93-7.47,9-13.2,12.2
			C227.98,154.24,233.62,158.74,237.55,164.4z M208.85,200.1c5.6-4,8.4-9.53,8.4-16.6c0-6.93-2.8-12.4-8.4-16.4
			c-5.6-4-13.2-6-22.8-6s-17.13,2-22.6,6c-5.47,4-8.2,9.47-8.2,16.4c0,7.07,2.73,12.6,8.2,16.6c5.46,4,13,6,22.6,6
			S203.25,204.1,208.85,200.1z M166.75,108.1c-4.73,3.47-7.1,8.33-7.1,14.6c0,6,2.37,10.77,7.1,14.3c4.73,3.53,11.17,5.3,19.3,5.3
			c8.27,0,14.8-1.77,19.6-5.3c4.8-3.53,7.2-8.3,7.2-14.3c0-6.27-2.43-11.13-7.3-14.6c-4.87-3.47-11.37-5.2-19.5-5.2
			C177.92,102.9,171.48,104.64,166.75,108.1z"/>
	</g>
	<path class="st2" d="M238.63,29.2C23.92,19.99,16.87,217.47,16.82,218.9C6.28,198.38,0.34,175.12,0.34,150.48
		c0-82.85,67.16-150,150-150C183.34,0.48,213.86,11.14,238.63,29.2z"/>
</g>
</svg>
