<?xml version="1.0" encoding="utf-8"?>
<!-- Generator: Adobe Illustrator 25.4.1, SVG Export Plug-In . SVG Version: 6.00 Build 0)  -->
<svg version="1.1" xmlns="http://www.w3.org/2000/svg" xmlns:xlink="http://www.w3.org/1999/xlink" x="0px" y="0px"
	 viewBox="0 0 300 300" style="enable-background:new 0 0 300 300;" xml:space="preserve">
<style type="text/css">
	.st0{fill:#CD5527;}
	.st1{opacity:0.13;fill:#010101;}
	.st2{fill:#FFFFFF;}
</style>
<g id="Layer_1">
	<g>
		<circle class="st0" cx="149.81" cy="150.24" r="150"/>
		<path class="st1" d="M238.77,28.96C24.06,19.75,17.01,217.23,16.96,218.67C6.42,198.15,0.47,174.89,0.47,150.24
			c0-82.85,67.16-150,150-150C183.48,0.24,214,10.9,238.77,28.96z"/>
	</g>
</g>
<g id="Capa_1">
	<g>
		<g>
			<g>
				<path class="st2" d="M87.05,212.97c-5.89-1.72-11.29-4.89-15.75-9.35c-0.99-0.99-1.91-2.02-2.76-3.08
					c-4.86,8.66-3.62,19.81,3.75,27.17c7.36,7.36,18.52,8.6,27.17,3.74c-1.07-0.84-2.1-1.77-3.08-2.75
					C91.83,224.16,88.73,218.74,87.05,212.97z"/>
				<path class="st2" d="M153.73,136.87l-8.8,8.81c0.17,3.07,0.19,6.18,0.03,9.31c1.38-0.07,2.76-0.1,4.17-0.1
					c1.75,0,3.5,0.06,5.23,0.16l8.77-8.77l12.48,12.49c5.81,1.65,11.21,3.72,16.03,5.95c27.58-28.71,54.87-75.5,37.02-93.35
					c-17.83-17.83-64.53,9.37-93.25,36.92c2.28,4.87,4.35,10.36,5.99,16.26L153.73,136.87z M186.44,150.78l-13.91-13.91l9.4-9.4
					l13.09,13.08C192.34,143.98,189.48,147.4,186.44,150.78z M202.89,129.65l-11.58-11.58l9.4-9.4l9.31,9.31
					C207.93,121.77,205.55,125.68,202.89,129.65z M220.97,88.43c-0.35,4.42-1.96,10.25-4.76,16.94l-6.09-6.09L220.97,88.43z
					 M211.56,79.03l-10.84,10.85l-6.09-6.09C201.32,80.99,207.14,79.38,211.56,79.03z M182.01,89.97l9.31,9.31l-9.4,9.4L170.34,97.1
					C174.32,94.44,178.23,92.06,182.01,89.97z M159.44,104.99l13.08,13.09l-9.4,9.4l-13.91-13.91
					C152.59,110.51,156.01,107.65,159.44,104.99z"/>
				<path class="st2" d="M149.12,162.55c-1.63,0-3.28,0.06-4.93,0.16c-2.11,14.25-8.23,28.54-20.61,40.91
					c-6.98,6.99-16.27,10.83-26.15,10.83c-0.58,0-1.15-0.01-1.73-0.05c1.42,3.21,3.45,6.22,6.08,8.86
					c5.68,5.69,13.05,8.48,20.47,8.48c7.51,0,15.07-2.85,20.97-8.48c39.2-37.29,72.65-29.99,61.21-41.43
					C197.43,174.84,174.41,162.55,149.12,162.55z"/>
				<path class="st2" d="M97.44,206.78c7.5,0,15-2.86,20.72-8.58c36.97-36.97,11.44-91.2,0-102.64c-1.55-1.55-2.76-2.27-3.78-2.27
					c-6.51,0-5.42,29.58-37.66,63.48c-11.15,11.73-11.45,29.99,0,41.43C82.44,203.92,89.94,206.78,97.44,206.78z"/>
			</g>
		</g>
	</g>
</g>
</svg>
