<?xml version="1.0" encoding="utf-8"?>
<!-- Generator: Adobe Illustrator 25.4.1, SVG Export Plug-In . SVG Version: 6.00 Build 0)  -->
<svg version="1.1" xmlns="http://www.w3.org/2000/svg" xmlns:xlink="http://www.w3.org/1999/xlink" x="0px" y="0px"
	 viewBox="0 0 300 300" style="enable-background:new 0 0 300 300;" xml:space="preserve">
<style type="text/css">
	.st0{fill:#EC7C52;}
	.st1{opacity:0.13;fill:#010101;}
	.st2{fill:#FFFFFF;}
</style>
<g id="Capa_1">
</g>
<g id="Layer_1">
	<circle class="st0" cx="149.68" cy="150.47" r="150"/>
	<path class="st1" d="M238.3,29.2C23.59,19.99,16.54,217.47,16.49,218.9C5.95,198.38,0.01,175.12,0.01,150.48
		c0-82.85,67.16-150,150-150C183.01,0.48,213.53,11.14,238.3,29.2z"/>
	<g>
		<path class="st2" d="M117.72,222.14c12.85,20.19,44.48,21.44,58.4,9.5c-0.24-0.13-0.48-0.22-0.65-0.38
			c-0.37-0.34-0.81-0.81-1.19-1.36c-1.27-1.81-0.59-2.98,0.17-3.63c0.45-0.39,1.02-0.63,1.61-0.74c3.53-0.66,10.77-1.73,12.04,0.22
			c1.55,2.37-0.86,8.2-2.12,11.63c-0.6,1.63-1.71,2.77-3.42,2.17c-0.95-0.33-1.57-1.6-2.53-2.65c-2.89,1.24-4.08,2.45-7.43,3.93
			c-13.29,6.04-25.45,4.26-38.13-1.84c-5.15-2.48-9.97-6.13-13.31-11.13C119.91,226.02,118.85,224.05,117.72,222.14z"/>
		<path class="st2" d="M107.75,85.58c-23.93-0.18-42.17,25.69-39.71,43.86c0.24-0.13,0.44-0.28,0.67-0.34
			c0.49-0.13,1.12-0.24,1.79-0.26c2.21-0.08,2.82,1.13,2.95,2.11c0.08,0.59-0.03,1.19-0.25,1.75c-1.36,3.32-4.4,9.98-6.73,9.99
			c-2.83,0.01-6.42-5.18-8.61-8.1c-1.04-1.39-1.4-2.94,0.03-4.05c0.79-0.62,2.19-0.45,3.6-0.68c0.53-3.1,0.16-4.75,0.74-8.37
			C64.4,107.03,72.5,97.8,84.51,90.46c4.88-2.98,10.56-5.03,16.57-5.12C103.3,85.31,105.53,85.49,107.75,85.58z"/>
		<path class="st2" d="M233.94,143.19c8.51-22.37-9.39-48.48-27.28-52.5c0.03,0.27,0.11,0.51,0.08,0.75
			c-0.05,0.5-0.17,1.14-0.38,1.77c-0.7,2.1-2.04,2.25-3.01,2.03c-0.58-0.13-1.11-0.44-1.55-0.85c-2.64-2.43-7.83-7.6-7.02-9.78
			c0.98-2.66,7.09-4.21,10.59-5.25c1.66-0.49,3.24-0.29,3.79,1.44c0.3,0.96-0.34,2.21-0.61,3.61c2.72,1.58,4.4,1.81,7.59,3.61
			c12.79,7.05,18.62,17.86,21.31,31.67c1.09,5.61,1.04,11.65-0.97,17.32C235.74,139.11,234.79,141.13,233.94,143.19z"/>
		<g>
			<g>
				<path class="st2" d="M170.74,74.95c0,0.34-0.01,0.67-0.03,1c-0.02,0.33-0.04,0.66-0.08,0.99c-0.05,0.49-0.12,0.98-0.2,1.46
					c-0.09,0.52-0.21,1.04-0.34,1.55c-0.26,0.98-0.59,1.93-0.99,2.84c-0.06,0.13-0.12,0.26-0.18,0.39c-0.21,0.45-0.44,0.9-0.69,1.33
					c-0.07,0.13-0.15,0.26-0.22,0.39c-0.91,1.54-2.03,2.94-3.31,4.16c-0.12,0.12-0.25,0.23-0.37,0.35
					c-0.21,0.19-0.43,0.38-0.66,0.57c-0.15,0.12-0.29,0.24-0.44,0.36c-0.33,0.26-0.67,0.51-1.02,0.74c-0.05,0.03-0.1,0.07-0.15,0.1
					c-0.46,0.31-0.93,0.6-1.42,0.87c-0.44,0.24-0.89,0.47-1.35,0.68c-0.03,0.01-0.06,0.02-0.08,0.04c-0.91,0.41-1.85,0.75-2.83,1.01
					c-0.21,0.06-0.41,0.11-0.62,0.16c-0.98,0.23-1.99,0.39-3.02,0.47c-0.33,0.02-0.66,0.04-1,0.05c-0.17,0-0.34,0.01-0.5,0.01
					c-0.17,0-0.34,0-0.5-0.01c-0.33-0.01-0.67-0.03-1-0.05c-1.03-0.08-2.04-0.24-3.02-0.47c-0.21-0.05-0.42-0.1-0.62-0.16
					c-0.98-0.27-1.92-0.6-2.83-1.01c-0.03-0.01-0.06-0.02-0.08-0.04c-0.41-0.19-0.81-0.39-1.21-0.6c-0.54-0.29-1.06-0.6-1.56-0.94
					c-0.05-0.03-0.1-0.07-0.15-0.1c-0.35-0.24-0.69-0.48-1.02-0.74c-0.15-0.12-0.3-0.24-0.44-0.36c-0.22-0.18-0.44-0.37-0.66-0.57
					c-0.24-0.22-0.47-0.44-0.7-0.66c-1.15-1.15-2.15-2.44-2.99-3.84c-0.08-0.13-0.15-0.26-0.22-0.39c-0.24-0.43-0.47-0.88-0.68-1.33
					c-0.06-0.13-0.12-0.26-0.18-0.39c-0.4-0.91-0.73-1.86-0.99-2.84c-0.13-0.51-0.25-1.02-0.34-1.55c-0.09-0.48-0.15-0.97-0.2-1.46
					c-0.03-0.33-0.06-0.66-0.08-0.99c-0.02-0.33-0.03-0.67-0.03-1s0.07-0.67,0.08-1c0.01-0.2,0.1-0.41,0.1-0.61v-0.01
					c0-0.13-0.04-0.25-0.02-0.38c0.01-0.12,0-0.25,0.01-0.37c0.04-0.37,0.08-0.73,0.15-1.09c0.09-0.52,0.2-1.04,0.34-1.55
					c0.26-0.98,0.59-1.93,0.99-2.84c0.03-0.07,0.06-0.13,0.09-0.2c0.03-0.06,0.06-0.13,0.09-0.19c0.21-0.45,0.44-0.9,0.68-1.33
					c0.07-0.13,0.15-0.26,0.22-0.39c0.91-1.54,2.03-2.94,3.31-4.16c0.12-0.12,0.25-0.23,0.37-0.35c0.21-0.19,0.43-0.38,0.66-0.57
					c0.15-0.12,0.29-0.24,0.44-0.36c0.33-0.26,0.67-0.51,1.02-0.74c0.05-0.03,0.1-0.07,0.15-0.1c0.88-0.59,1.8-1.1,2.77-1.54
					c0.03-0.01,0.06-0.02,0.08-0.04c0.91-0.41,1.85-0.75,2.83-1.01c0.21-0.06,0.41-0.11,0.62-0.16c0.98-0.23,1.99-0.39,3.02-0.47
					c0.33-0.02,0.66-0.04,1-0.05c0.17,0,0.33-0.01,0.5-0.01c0.17,0,0.34,0,0.5,0.01c0.33,0.01,0.67,0.03,1,0.05
					c1.03,0.08,2.04,0.24,3.02,0.47c0.21,0.05,0.42,0.1,0.62,0.16c0.98,0.27,1.92,0.6,2.83,1.01c0.03,0.01,0.06,0.02,0.08,0.04
					c0.97,0.44,1.89,0.96,2.77,1.54c0.05,0.03,0.1,0.07,0.15,0.1c0.35,0.24,0.69,0.48,1.02,0.74c0.15,0.12,0.3,0.24,0.44,0.36
					c0.22,0.18,0.44,0.37,0.66,0.57c0.12,0.11,0.25,0.23,0.37,0.34c1.29,1.23,2.41,2.63,3.32,4.17c0.08,0.13,0.15,0.26,0.22,0.39
					c0.25,0.43,0.47,0.88,0.69,1.33c0.06,0.13,0.12,0.26,0.18,0.39c0.4,0.91,0.73,1.86,0.99,2.84c0.13,0.51,0.25,1.02,0.34,1.55
					c0.09,0.48,0.15,0.97,0.2,1.46c0.02,0.15,0.03,0.31,0.04,0.46c0.01,0.18,0.02,0.35,0.03,0.53
					C170.74,74.28,170.74,74.61,170.74,74.95z"/>
				<path class="st2" d="M131.79,73.33c0,0,0.01,0.01,0.01,0.01c0,0,0,0,0,0v0C131.8,73.33,131.79,73.33,131.79,73.33z
					 M131.44,73.15c0.02,0.01,0.04,0.02,0.05,0.03c0.09,0.05,0.16,0.1,0.3,0.15c-0.02-0.01-0.04-0.03-0.06-0.04
					C131.64,73.24,131.53,73.19,131.44,73.15z"/>
				<path class="st2" d="M131.44,73.15c0.09,0.05,0.2,0.09,0.29,0.14c-0.07-0.04-0.16-0.08-0.24-0.11
					C131.47,73.16,131.46,73.16,131.44,73.15z"/>
				<path class="st2" d="M131.8,73.33L131.8,73.33C131.8,73.34,131.8,73.33,131.8,73.33c-0.01,0-0.01,0-0.01-0.01
					C131.79,73.33,131.8,73.33,131.8,73.33z"/>
			</g>
			<path class="st2" d="M183.48,113.13v20.2c0,0.41,0.02,0.49-0.38,0.49h-63.73c-0.4,0-0.75-0.08-0.75-0.49v-20.2
				c0-0.33-0.02-0.65,0-0.97c0.23-4.81,2.15-9.17,5.17-12.45c0.09-0.1,0.17-0.19,0.26-0.29c1.5-1.57,3.26-2.87,5.2-3.83
				c0.12-0.06,0.23-0.11,0.35-0.17c0.53-0.25,1.08-0.48,1.64-0.67c0.12-0.04,0.25-0.09,0.37-0.13c0.5-0.17,1.01-0.31,1.53-0.43
				c0.63,0.61,1.29,1.18,1.98,1.72c1.75,1.37,3.67,2.52,5.69,3.42c0.38,0.17,0.77,0.33,1.15,0.48c1.49,0.58,3.03,1.01,4.58,1.3
				c1.53,0.28,3.09,0.42,4.66,0.42c1.8,0,3.58-0.17,5.31-0.54c0.22-0.05,0.43-0.13,0.65-0.13c0,0,0,0,0,0c0.32,0,0.64,0,0.96,0
				c0,0,0,0,0,0c0.84,0,1.67-0.66,2.5-0.99c0.33-0.13,0.65-0.42,0.97-0.56c1.59-0.7,3.08-1.64,4.49-2.71c0,0,0,0,0,0
				c0.16,0,0.31-0.14,0.46-0.26c0.92-0.69,1.81-1.39,2.65-2.2c8,1.86,13.93,9.19,14.34,17.99
				C183.58,112.46,183.48,112.8,183.48,113.13z"/>
		</g>
		<g>
			<g>
				<path class="st2" d="M119.32,152.08c0,0.34-0.01,0.67-0.03,1c-0.02,0.33-0.04,0.66-0.08,0.99c-0.05,0.49-0.12,0.98-0.2,1.46
					c-0.09,0.52-0.21,1.04-0.34,1.55c-0.26,0.98-0.59,1.93-0.99,2.84c-0.06,0.13-0.12,0.26-0.18,0.39c-0.21,0.45-0.44,0.9-0.69,1.33
					c-0.07,0.13-0.15,0.26-0.22,0.39c-0.91,1.54-2.03,2.94-3.31,4.16c-0.12,0.12-0.25,0.23-0.37,0.35
					c-0.21,0.19-0.43,0.38-0.66,0.57c-0.15,0.12-0.29,0.24-0.44,0.36c-0.33,0.26-0.67,0.51-1.02,0.74c-0.05,0.03-0.1,0.07-0.15,0.1
					c-0.46,0.31-0.93,0.6-1.42,0.87c-0.44,0.24-0.89,0.47-1.35,0.68c-0.03,0.01-0.06,0.02-0.08,0.04c-0.91,0.41-1.85,0.75-2.83,1.01
					c-0.21,0.06-0.41,0.11-0.62,0.16c-0.98,0.23-1.99,0.39-3.02,0.47c-0.33,0.02-0.66,0.04-1,0.05c-0.17,0-0.34,0.01-0.5,0.01
					c-0.17,0-0.34,0-0.5-0.01c-0.33-0.01-0.67-0.03-1-0.05c-1.03-0.08-2.04-0.24-3.02-0.47c-0.21-0.05-0.42-0.1-0.62-0.16
					c-0.98-0.27-1.92-0.6-2.83-1.01c-0.03-0.01-0.06-0.02-0.08-0.04c-0.41-0.19-0.81-0.39-1.21-0.6c-0.54-0.29-1.06-0.6-1.56-0.94
					c-0.05-0.03-0.1-0.07-0.15-0.1c-0.35-0.24-0.69-0.48-1.02-0.74c-0.15-0.12-0.3-0.24-0.44-0.36c-0.22-0.18-0.44-0.37-0.66-0.57
					c-0.24-0.22-0.47-0.44-0.7-0.66c-1.15-1.15-2.15-2.44-2.99-3.84c-0.08-0.13-0.15-0.26-0.22-0.39c-0.24-0.43-0.47-0.88-0.68-1.33
					c-0.06-0.13-0.12-0.26-0.18-0.39c-0.4-0.91-0.73-1.86-0.99-2.84c-0.13-0.51-0.25-1.02-0.34-1.55c-0.09-0.48-0.15-0.97-0.2-1.46
					c-0.03-0.33-0.06-0.66-0.08-0.99c-0.02-0.33-0.03-0.67-0.03-1s-0.01-0.67,0.01-1c0.01-0.2,0.03-0.41,0.03-0.61v-0.01
					c0-0.13,0.04-0.25,0.05-0.38c0.01-0.12,0.03-0.25,0.05-0.37c0.04-0.37,0.1-0.73,0.17-1.09c0.09-0.52,0.21-1.04,0.34-1.55
					c0.26-0.98,0.59-1.93,0.99-2.84c0.03-0.07,0.06-0.13,0.09-0.2c0.03-0.06,0.06-0.13,0.09-0.19c0.21-0.45,0.44-0.9,0.68-1.33
					c0.07-0.13,0.15-0.26,0.22-0.39c0.91-1.54,2.03-2.94,3.31-4.16c0.12-0.12,0.25-0.23,0.37-0.35c0.21-0.19,0.43-0.38,0.66-0.57
					c0.15-0.12,0.29-0.24,0.44-0.36c0.33-0.26,0.67-0.51,1.02-0.74c0.05-0.03,0.1-0.07,0.15-0.1c0.88-0.59,1.8-1.1,2.77-1.54
					c0.03-0.01,0.06-0.02,0.08-0.04c0.91-0.41,1.85-0.75,2.83-1.01c0.21-0.06,0.41-0.11,0.62-0.16c0.98-0.23,1.99-0.39,3.02-0.47
					c0.33-0.02,0.66-0.04,1-0.05c0.17,0,0.33-0.01,0.5-0.01c0.17,0,0.34,0,0.5,0.01c0.33,0.01,0.67,0.03,1,0.05
					c1.03,0.08,2.04,0.24,3.02,0.47c0.21,0.05,0.42,0.1,0.62,0.16c0.98,0.27,1.92,0.6,2.83,1.01c0.03,0.01,0.06,0.02,0.08,0.04
					c0.97,0.44,1.89,0.96,2.77,1.54c0.05,0.03,0.1,0.07,0.15,0.1c0.35,0.24,0.69,0.48,1.02,0.74c0.15,0.12,0.3,0.24,0.44,0.36
					c0.22,0.18,0.44,0.37,0.66,0.57c0.12,0.11,0.25,0.23,0.37,0.34c1.29,1.23,2.41,2.63,3.32,4.17c0.08,0.13,0.15,0.26,0.22,0.39
					c0.25,0.43,0.47,0.88,0.69,1.33c0.06,0.13,0.12,0.26,0.18,0.39c0.4,0.91,0.73,1.86,0.99,2.84c0.13,0.51,0.25,1.02,0.34,1.55
					c0.09,0.48,0.15,0.97,0.2,1.46c0.02,0.15,0.03,0.31,0.04,0.46c0.01,0.18,0.02,0.35,0.03,0.53
					C119.31,151.41,119.32,151.75,119.32,152.08z"/>
				<path class="st2" d="M80.37,150.46c0,0,0.01,0.01,0.01,0.01c0,0,0,0,0,0v0C80.38,150.46,80.37,150.46,80.37,150.46z
					 M80.02,150.28c0.02,0.01,0.04,0.02,0.05,0.03c0.09,0.05,0.16,0.1,0.3,0.15c-0.02-0.01-0.04-0.03-0.06-0.04
					C80.22,150.37,80.11,150.33,80.02,150.28z"/>
				<path class="st2" d="M80.02,150.28c0.09,0.05,0.2,0.09,0.29,0.14c-0.07-0.04-0.16-0.08-0.24-0.11
					C80.05,150.3,80.03,150.29,80.02,150.28z"/>
				<path class="st2" d="M80.38,150.47L80.38,150.47C80.38,150.47,80.38,150.47,80.38,150.47c-0.01,0-0.01,0-0.01-0.01
					C80.37,150.46,80.38,150.46,80.38,150.47z"/>
			</g>
			<path class="st2" d="M132.44,190.26v20.2c0,0.41-0.37,0.44-0.76,0.44H67.95c-0.4,0-0.89-0.03-0.89-0.44v-20.2
				c0-0.33,0.05-0.65,0.07-0.97c0.23-4.81,2.19-9.17,5.2-12.45c0.09-0.1,0.19-0.19,0.28-0.29c1.5-1.57,3.27-2.87,5.21-3.83
				c0.12-0.06,0.24-0.11,0.36-0.17c0.53-0.25,1.08-0.48,1.64-0.67c0.12-0.04,0.25-0.09,0.38-0.13c0.5-0.17,1.01-0.31,1.53-0.43
				c0.63,0.61,1.29,1.18,1.98,1.72c1.75,1.37,3.67,2.52,5.69,3.42c0.38,0.17,0.77,0.33,1.15,0.48c1.49,0.58,3.03,1.01,4.58,1.3
				c1.53,0.28,3.09,0.42,4.66,0.42c1.8,0,3.58-0.19,5.31-0.56c0.22-0.05,0.43-0.15,0.65-0.15c0,0,0,0,0,0c0.32,0,0.64,0,0.96,0
				c0,0,0,0,0,0c0.84,0,1.67-0.64,2.5-0.96c0.33-0.13,0.65-0.43,0.97-0.57c1.59-0.7,3.08-1.65,4.49-2.72c0,0,0,0,0,0
				c0.16,0,0.31-0.12,0.46-0.23c0.92-0.69,1.81-1.38,2.65-2.19c8,1.86,14.12,9.19,14.54,18
				C132.35,189.59,132.44,189.94,132.44,190.26z"/>
		</g>
		<g>
			<g>
				<path class="st2" d="M230.17,154.94c0,0.34-0.01,0.67-0.03,1c-0.02,0.33-0.04,0.66-0.08,0.99c-0.05,0.49-0.12,0.98-0.2,1.46
					c-0.09,0.52-0.21,1.04-0.34,1.55c-0.26,0.98-0.59,1.93-0.99,2.84c-0.06,0.13-0.12,0.26-0.18,0.39c-0.21,0.45-0.44,0.9-0.69,1.33
					c-0.07,0.13-0.15,0.26-0.22,0.39c-0.91,1.54-2.03,2.94-3.31,4.16c-0.12,0.12-0.25,0.23-0.37,0.35
					c-0.21,0.19-0.43,0.38-0.66,0.57c-0.15,0.12-0.29,0.24-0.44,0.36c-0.33,0.26-0.67,0.51-1.02,0.74c-0.05,0.03-0.1,0.07-0.15,0.1
					c-0.46,0.31-0.93,0.6-1.42,0.87c-0.44,0.24-0.89,0.47-1.35,0.68c-0.03,0.01-0.06,0.02-0.08,0.04c-0.91,0.41-1.85,0.75-2.83,1.01
					c-0.21,0.06-0.41,0.11-0.62,0.16c-0.98,0.23-1.99,0.39-3.02,0.47c-0.33,0.02-0.66,0.04-1,0.05c-0.17,0-0.34,0.01-0.5,0.01
					c-0.17,0-0.34,0-0.5-0.01c-0.33-0.01-0.67-0.03-1-0.05c-1.03-0.08-2.04-0.24-3.02-0.47c-0.21-0.05-0.42-0.1-0.62-0.16
					c-0.98-0.27-1.92-0.6-2.83-1.01c-0.03-0.01-0.06-0.02-0.08-0.04c-0.41-0.19-0.81-0.39-1.21-0.6c-0.54-0.29-1.06-0.6-1.56-0.94
					c-0.05-0.03-0.1-0.07-0.15-0.1c-0.35-0.24-0.69-0.48-1.02-0.74c-0.15-0.12-0.3-0.24-0.44-0.36c-0.22-0.18-0.44-0.37-0.66-0.57
					c-0.24-0.22-0.47-0.44-0.7-0.66c-1.15-1.15-2.15-2.44-2.99-3.84c-0.08-0.13-0.15-0.26-0.22-0.39c-0.24-0.43-0.47-0.88-0.68-1.33
					c-0.06-0.13-0.12-0.26-0.18-0.39c-0.4-0.91-0.73-1.86-0.99-2.84c-0.13-0.51-0.25-1.02-0.34-1.55c-0.09-0.48-0.15-0.97-0.2-1.46
					c-0.03-0.33-0.06-0.66-0.08-0.99c-0.02-0.33-0.03-0.67-0.03-1s-0.14-0.67-0.12-1c0.01-0.2-0.11-0.41-0.11-0.61v-0.01
					c0-0.13,0.17-0.25,0.18-0.38c0.01-0.12,0.1-0.25,0.12-0.37c0.04-0.37,0.13-0.73,0.2-1.09c0.09-0.52,0.23-1.04,0.36-1.55
					c0.26-0.98,0.6-1.93,1-2.84c0.03-0.07,0.06-0.13,0.09-0.2c0.03-0.06,0.06-0.13,0.09-0.19c0.21-0.45,0.44-0.9,0.69-1.33
					c0.07-0.13,0.15-0.26,0.22-0.39c0.91-1.54,2.03-2.94,3.32-4.16c0.12-0.12,0.25-0.23,0.37-0.35c0.21-0.19,0.43-0.38,0.66-0.57
					c0.15-0.12,0.29-0.24,0.44-0.36c0.33-0.26,0.67-0.51,1.02-0.74c0.05-0.03,0.1-0.07,0.15-0.1c0.88-0.59,1.8-1.1,2.77-1.54
					c0.03-0.01,0.06-0.02,0.08-0.04c0.91-0.41,1.85-0.75,2.83-1.01c0.21-0.06,0.41-0.11,0.62-0.16c0.98-0.23,1.99-0.39,3.02-0.47
					c0.33-0.02,0.66-0.04,1-0.05c0.17,0,0.33-0.01,0.5-0.01c0.17,0,0.34,0,0.5,0.01c0.33,0.01,0.67,0.03,1,0.05
					c1.03,0.08,2.04,0.24,3.02,0.47c0.21,0.05,0.42,0.1,0.62,0.16c0.98,0.27,1.92,0.6,2.83,1.01c0.03,0.01,0.06,0.02,0.08,0.04
					c0.97,0.44,1.89,0.96,2.77,1.54c0.05,0.03,0.1,0.07,0.15,0.1c0.35,0.24,0.69,0.48,1.02,0.74c0.15,0.12,0.3,0.24,0.44,0.36
					c0.22,0.18,0.44,0.37,0.66,0.57c0.12,0.11,0.25,0.23,0.37,0.34c1.29,1.23,2.41,2.63,3.32,4.17c0.08,0.13,0.15,0.26,0.22,0.39
					c0.25,0.43,0.47,0.88,0.69,1.33c0.06,0.13,0.12,0.26,0.18,0.39c0.4,0.91,0.73,1.86,0.99,2.84c0.13,0.51,0.25,1.02,0.34,1.55
					c0.09,0.48,0.15,0.97,0.2,1.46c0.02,0.15,0.03,0.31,0.04,0.46c0.01,0.18,0.02,0.35,0.03,0.53
					C230.16,154.27,230.17,154.6,230.17,154.94z"/>
				<path class="st2" d="M191.21,153.32c0,0,0.01,0.01,0.01,0.01c0,0,0,0,0,0v0C191.22,153.32,191.22,153.32,191.21,153.32z
					 M190.86,153.14c0.02,0.01,0.04,0.02,0.05,0.03c0.09,0.05,0.16,0.1,0.3,0.15c-0.02-0.01-0.04-0.03-0.06-0.04
					C191.06,153.23,190.95,153.18,190.86,153.14z"/>
				<path class="st2" d="M190.86,153.14c0.09,0.05,0.2,0.09,0.29,0.14c-0.07-0.04-0.16-0.08-0.24-0.11
					C190.9,153.16,190.88,153.15,190.86,153.14z"/>
				<path class="st2" d="M191.23,153.32L191.23,153.32C191.23,153.33,191.23,153.33,191.23,153.32c-0.01,0-0.01,0-0.01-0.01
					C191.22,153.32,191.22,153.32,191.23,153.32z"/>
			</g>
			<path class="st2" d="M243.02,193.12v20.2c0,0.41-0.1,0.78-0.5,0.78h-63.73c-0.4,0-0.63-0.36-0.63-0.78v-20.2
				c0-0.33-0.08-0.65-0.06-0.97c0.23-4.81,2.12-9.17,5.14-12.45c0.09-0.1,0.16-0.19,0.25-0.29c1.5-1.57,3.25-2.87,5.19-3.83
				c0.12-0.06,0.23-0.11,0.35-0.17c0.53-0.25,1.08-0.48,1.64-0.67c0.12-0.04,0.25-0.09,0.37-0.13c0.5-0.17,1.01-0.31,1.53-0.43
				c0.63,0.61,1.29,1.18,1.98,1.72c1.75,1.37,3.67,2.52,5.69,3.42c0.38,0.17,0.77,0.33,1.15,0.48c1.49,0.58,3.03,1.01,4.58,1.3
				c1.53,0.28,3.09,0.42,4.66,0.42c1.8,0,3.58-0.29,5.31-0.66c0.22-0.05,0.43-0.25,0.65-0.25c0,0,0,0,0,0c0.32,0,0.64,0,0.96,0
				c0,0,0,0,0,0c0.84,0,1.67-0.54,2.5-0.86c0.33-0.13,0.65-0.21,0.97-0.36c1.59-0.7,3.08-1.44,4.49-2.5c0,0,0,0,0,0
				c0.16,0,0.31-0.28,0.46-0.4c0.92-0.69,1.81-1.46,2.65-2.27c8,1.86,13.99,9.15,14.4,17.95
				C243.06,192.48,243.02,192.79,243.02,193.12z"/>
		</g>
	</g>
</g>
</svg>
