<?xml version="1.0" encoding="utf-8"?>
<!-- Generator: Adobe Illustrator 25.4.1, SVG Export Plug-In . SVG Version: 6.00 Build 0)  -->
<svg version="1.1" xmlns="http://www.w3.org/2000/svg" xmlns:xlink="http://www.w3.org/1999/xlink" x="0px" y="0px"
	 viewBox="0 0 300 300" style="enable-background:new 0 0 300 300;" xml:space="preserve">
<style type="text/css">
	.st0{fill:#03AA9F;}
	.st1{opacity:0.13;fill:#010101;}
	.st2{fill:#FFFFFF;}
</style>
<g id="Capa_1">
</g>
<g id="Layer_1">
	<circle class="st0" cx="149.68" cy="150.47" r="150"/>
	<path class="st1" d="M238.3,29.2C23.59,19.99,16.54,217.47,16.49,218.9C5.95,198.38,0.01,175.12,0.01,150.48
		c0-82.85,67.16-150,150-150C183.01,0.48,213.53,11.14,238.3,29.2z"/>
	<g>
		<path class="st2" d="M117.59,120.33c4.49-5.35,8.04-9.58,12.04-14.34c6.44,4.33,12.76,8.7,19.2,12.89
			c21.9,14.28,45.3,25.06,71.08,30.27c7.91,1.6,13.73-1.34,15.09-7.84c1.27-6.04-2.61-11.16-10.42-12.8
			c-30.15-6.33-56.1-21.26-81.28-39.14c3.86-4.74,7.57-9.3,12.05-14.81c-19.85-3.34-38.67-6.5-58.52-9.83
			C103.81,83.48,110.49,101.35,117.59,120.33z"/>
		<path class="st2" d="M64.8,176.59c0,14.84-0.04,29.68,0.01,44.51c0.04,10.34,3.7,13.98,13.98,14.08c2.21,0.02,4.44,0.1,6.64-0.04
			c7.07-0.46,11.21-4.27,11.24-11.38c0.16-31.45,0.16-62.9,0-94.34c-0.04-7.11-4.17-10.94-11.24-11.38
			c-2.65-0.16-5.32-0.11-7.97-0.04c-8.59,0.23-12.56,4.1-12.62,12.74C64.72,146.03,64.8,161.31,64.8,176.59z"/>
		<path class="st2" d="M107.42,187.61c0,11.51-0.08,23.02,0.02,34.53c0.08,9.06,3.95,12.85,13,13.03c2.65,0.05,5.32,0.14,7.97-0.06
			c6.69-0.5,10.81-4.31,10.86-11.05c0.19-24.57,0.19-49.14,0-73.71c-0.05-6.72-4.21-10.51-10.92-10.98
			c-2.86-0.2-5.76-0.14-8.63-0.05c-8.19,0.28-12.15,4.16-12.25,12.43C107.31,163.7,107.42,175.66,107.42,187.61z"/>
		<path class="st2" d="M181.99,197.6c0-8.19,0.12-16.37-0.03-24.56c-0.15-8.26-4.07-12.14-12.26-12.41
			c-2.87-0.1-5.76-0.15-8.62,0.05c-6.71,0.47-10.83,4.26-10.92,10.97c-0.23,17.47-0.23,34.96-0.01,52.43
			c0.09,6.73,4.17,10.56,10.86,11.03c3.08,0.22,6.2,0.18,9.29,0.04c7.44-0.36,11.45-4.22,11.64-11.67
			C182.16,214.87,181.99,206.23,181.99,197.6z"/>
	</g>
	<path class="st2" d="M227.59,211.74c0.01-5.13,0.18-10.27-0.03-15.39c-0.33-7.81-4.49-11.86-12.35-12.23
		c-3.02-0.14-6.07-0.15-9.09,0.01c-7.55,0.4-11.91,4.33-12.1,11.72c-0.29,10.95-0.3,21.92,0.01,32.87
		c0.2,7.05,4.49,11.03,11.59,11.49c3.48,0.22,7.01,0.24,10.48-0.01c7.03-0.5,11.08-4.56,11.43-11.67
		C227.8,222.94,227.58,217.33,227.59,211.74z"/>
</g>
</svg>
